Data Science Blog - Text Mining Analysis
…
names(d_train) <- c("text", "c1", "c2")

Add ID Column

d_train <- d_train %>%
mutate(id = row_number()) %>%
select(id, everything())

4. Explore Dataset

train_toc <- d_train %>%
unnest_tokens(output = token, input = text)
train_toc

# A tibble: 100,217 x 4
      id c1    c2    token         
   <int> <chr> <chr> <chr>         
 1     1 OTHER OTHER corinnamilborn
 2     1 OTHER OTHER liebe         
 3     1 OTHER OTHER corinna       
 4     1 OTHER OTHER wir           
 5     1 OTHER OTHER würden        
 6     1 OTHER OTHER dich          
 7     1 OTHER OTHER gerne         
 8     1 OTHER OTHER als           
 9     1 OTHER OTHER moderatorin   
10     1 OTHER OTHER für           
# ... with 100,207 more rows
…
Warning: Paket 'stopwords' wurde unter R Version 4.1.3 erstellt

Warning: Paket 'glmnet' wurde unter R Version 4.1.3 erstellt

Warning: Paket 'Matrix' wurde unter R Version 4.1.3 erstellt

x Fold3, Repeat1: preprocessor 1/1, model 1/1: Error: kann Vektor der Größe 324.7 MB nicht allozieren

Model Performance

l2_83_wf_fit_performance <- collect_metrics(l2_83_wf_fit)
l2_83_wf_fit_performance

# A tibble: 50 x 7
    penalty .metric  .estimator  mean     n std_err .config              
      <dbl> <chr>    <chr>      <dbl> <int>   <dbl> <chr>                
 1 1   e-10 accuracy binary     0.708     5 0.00370 Preprocessor1_Model01
 2 1   e-10 roc_auc  binary     0.756     5 0.00603 Preprocessor1_Model01
 3 2.61e-10 accuracy binary     0.708     5 0.00370 Preprocessor1_Model02
 4 2.61e-10 roc_auc  binary     0.756     5 0.00603 Preprocessor1_Model02
 5 6.81e-10 accuracy binary     0.708     5 0.00370 Preprocessor1_Model03
 6 6.81e-10 roc_auc  binary     0.756     5 0.00603 Preprocessor1_Model03
 7 1.78e- 9 accuracy binary     0.708     5 0.00370 Preprocessor1_Model04
 8 1.78e- 9 roc_auc  binary     0.756     5 0.00603 Preprocessor1_Model04
 9 4.64e- 9 accuracy binary     0.708     5 0.00370 Preprocessor1_Model05
10 4.64e- 9 roc_auc  binary     0.756     5 0.00603 Preprocessor1_Model05
# ... with 40 more rows
…
Warning: Paket 'stringi' wurde unter R Version 4.1.2 erstellt

Warning: Paket 'textfeatures' wurde unter R Version 4.1.3 erstellt

Model Performance

l2_85_wf_performance <- collect_metrics(l2_85_wf_fit)
l2_85_wf_performance

# A tibble: 50 x 7
    penalty .metric  .estimator  mean     n std_err .config              
      <dbl> <chr>    <chr>      <dbl> <int>   <dbl> <chr>                
 1 1   e-10 accuracy binary     0.736     6 0.00297 Preprocessor1_Model01
 2 1   e-10 roc_auc  binary     0.763     6 0.00295 Preprocessor1_Model01
 3 2.61e-10 accuracy binary     0.736     6 0.00297 Preprocessor1_Model02
 4 2.61e-10 roc_auc  binary     0.763     6 0.00295 Preprocessor1_Model02
 5 6.81e-10 accuracy binary     0.736     6 0.00297 Preprocessor1_Model03
 6 6.81e-10 roc_auc  binary     0.763     6 0.00295 Preprocessor1_Model03
 7 1.78e- 9 accuracy binary     0.736     6 0.00297 Preprocessor1_Model04
 8 1.78e- 9 roc_auc  binary     0.763     6 0.00295 Preprocessor1_Model04
 9 4.64e- 9 accuracy binary     0.736     6 0.00297 Preprocessor1_Model05
10 4.64e- 9 roc_auc  binary     0.763     6 0.00295 Preprocessor1_Model05
# ... with 40 more rows
…
1227.83 sec elapsed

Model Performance

l1_86_wf_performance <- collect_metrics(l1_86_wf_fit)
l1_86_wf_performance

# A tibble: 50 x 7
    penalty .metric  .estimator  mean     n std_err .config              
      <dbl> <chr>    <chr>      <dbl> <int>   <dbl> <chr>                
 1 1   e-10 accuracy binary     0.748     6 0.00200 Preprocessor1_Model01
 2 1   e-10 roc_auc  binary     0.774     6 0.00204 Preprocessor1_Model01
 3 2.61e-10 accuracy binary     0.748     6 0.00200 Preprocessor1_Model02
 4 2.61e-10 roc_auc  binary     0.774     6 0.00204 Preprocessor1_Model02
 5 6.81e-10 accuracy binary     0.748     6 0.00200 Preprocessor1_Model03
 6 6.81e-10 roc_auc  binary     0.774     6 0.00204 Preprocessor1_Model03
 7 1.78e- 9 accuracy binary     0.748     6 0.00200 Preprocessor1_Model04
 8 1.78e- 9 roc_auc  binary     0.774     6 0.00204 Preprocessor1_Model04
 9 4.64e- 9 accuracy binary     0.748     6 0.00200 Preprocessor1_Model05
10 4.64e- 9 roc_auc  binary     0.774     6 0.00204 Preprocessor1_Model05
# ... with 40 more rows
…
options(mc.cores = parallel::detectCores())
l2_87_wf_fit <- tune_grid(
l2_87_wf,
folds,
grid = lambda_grid,
control = control_resamples(save_pred = TRUE)
)

Model Performance

l2_87_wf_performance <- collect_metrics(l2_87_wf_fit)
l2_87_wf_performance

# A tibble: 50 x 7
    penalty .metric  .estimator  mean     n std_err .config              
      <dbl> <chr>    <chr>      <dbl> <int>   <dbl> <chr>                
 1 1   e-10 accuracy binary     0.703     6 0.00190 Preprocessor1_Model01
 2 1   e-10 roc_auc  binary     0.768     6 0.00502 Preprocessor1_Model01
 3 2.61e-10 accuracy binary     0.703     6 0.00190 Preprocessor1_Model02
 4 2.61e-10 roc_auc  binary     0.768     6 0.00502 Preprocessor1_Model02
 5 6.81e-10 accuracy binary     0.703     6 0.00190 Preprocessor1_Model03
 6 6.81e-10 roc_auc  binary     0.768     6 0.00502 Preprocessor1_Model03
 7 1.78e- 9 accuracy binary     0.703     6 0.00190 Preprocessor1_Model04
 8 1.78e- 9 roc_auc  binary     0.768     6 0.00502 Preprocessor1_Model04
 9 4.64e- 9 accuracy binary     0.703     6 0.00190 Preprocessor1_Model05
10 4.64e- 9 roc_auc  binary     0.768     6 0.00502 Preprocessor1_Model05
# ... with 40 more rows
…
