…
### Model Performance


::: {.cell}

```{.r .cell-code}
l1_86_wf_performance <- collect_metrics(l1_86_wf_fit)
l1_86_wf_performance
```

::: {.cell-output .cell-output-stdout}
```
# A tibble: 50 x 7
    penalty .metric  .estimator  mean     n std_err .config              
      <dbl> <chr>    <chr>      <dbl> <int>   <dbl> <chr>                
 1 1   e-10 accuracy binary     0.746     6 0.00130 Preprocessor1_Model01
 2 1   e-10 roc_auc  binary     0.771     6 0.00431 Preprocessor1_Model01
 3 2.61e-10 accuracy binary     0.746     6 0.00130 Preprocessor1_Model02
 4 2.61e-10 roc_auc  binary     0.771     6 0.00431 Preprocessor1_Model02
 5 6.81e-10 accuracy binary     0.746     6 0.00130 Preprocessor1_Model03
 6 6.81e-10 roc_auc  binary     0.771     6 0.00431 Preprocessor1_Model03
 7 1.78e- 9 accuracy binary     0.746     6 0.00130 Preprocessor1_Model04
 8 1.78e- 9 roc_auc  binary     0.771     6 0.00431 Preprocessor1_Model04
 9 4.64e- 9 accuracy binary     0.746     6 0.00130 Preprocessor1_Model05
10 4.64e- 9 roc_auc  binary     0.771     6 0.00431 Preprocessor1_Model05
# ... with 40 more rows
```
…
