Data Science Blog - Text Mining Solution
…
Warning: Paket 'textfeatures' wurde unter R Version 4.1.3 erstellt

Warning: Paket 'stopwords' wurde unter R Version 4.1.3 erstellt

Warning: Paket 'glmnet' wurde unter R Version 4.1.3 erstellt

Warning: Paket 'Matrix' wurde unter R Version 4.1.3 erstellt

Model Performance

l1_86_wf_performance <- collect_metrics(l1_86_wf_fit)
l1_86_wf_performance

# A tibble: 50 x 7
    penalty .metric  .estimator  mean     n std_err .config              
      <dbl> <chr>    <chr>      <dbl> <int>   <dbl> <chr>                
 1 1   e-10 accuracy binary     0.740     6 0.00333 Preprocessor1_Model01
 2 1   e-10 roc_auc  binary     0.767     6 0.00310 Preprocessor1_Model01
 3 2.61e-10 accuracy binary     0.740     6 0.00333 Preprocessor1_Model02
 4 2.61e-10 roc_auc  binary     0.767     6 0.00310 Preprocessor1_Model02
 5 6.81e-10 accuracy binary     0.740     6 0.00333 Preprocessor1_Model03
 6 6.81e-10 roc_auc  binary     0.767     6 0.00310 Preprocessor1_Model03
 7 1.78e- 9 accuracy binary     0.740     6 0.00333 Preprocessor1_Model04
 8 1.78e- 9 roc_auc  binary     0.767     6 0.00310 Preprocessor1_Model04
 9 4.64e- 9 accuracy binary     0.740     6 0.00333 Preprocessor1_Model05
10 4.64e- 9 roc_auc  binary     0.767     6 0.00310 Preprocessor1_Model05
# ... with 40 more rows
…
