Data Science Blog - Datenauswertung
…
names(d_test) <- c("text", "c1", "c2")

Add ID column

d_test <- d_test %>% 
  mutate(id = row_number()) %>% 
  select(id, everything())

4. Explore dataset

train_toc <- d_train %>% 
  unnest_tokens(output = token, input = text)
train_toc

# A tibble: 100,217 x 4
      id c1    c2    token         
   <int> <chr> <chr> <chr>         
 1     1 OTHER OTHER corinnamilborn
 2     1 OTHER OTHER liebe         
 3     1 OTHER OTHER corinna       
 4     1 OTHER OTHER wir           
 5     1 OTHER OTHER würden        
 6     1 OTHER OTHER dich          
 7     1 OTHER OTHER gerne         
 8     1 OTHER OTHER als           
 9     1 OTHER OTHER moderatorin   
10     1 OTHER OTHER für           
# ... with 100,207 more rows
…
